…
  #Adding Min, Max, Median, Mean, and SD
  summarize(min_return=min(monthly_returns),
            max_return=max(monthly_returns),
            median_return=median(monthly_returns),
            mean_return=mean(monthly_returns),
            SD=sd(monthly_returns)) %>% 
  
  #Arranging by highest mean return
  arrange(desc(mean_return))

#Printing the table
summarise_monthly_returns

## # A tibble: 31 x 6
##    symbol min_return max_return median_return mean_return     SD
##    <chr>       <dbl>      <dbl>         <dbl>       <dbl>  <dbl>
##  1 AAPL       -0.577      0.454        0.0352      0.0269 0.115 
##  2 CRM        -0.360      0.403        0.0205      0.0262 0.110 
##  3 V          -0.196      0.338        0.0256      0.0200 0.0660
##  4 UNH        -0.306      0.266        0.0232      0.0192 0.0699
##  5 NKE        -0.375      0.396        0.0169      0.0163 0.0758
##  6 DOW        -0.276      0.255        0.0325      0.0156 0.109 
##  7 CAT        -0.353      0.350        0.0141      0.0144 0.0898
##  8 BA         -0.458      0.459        0.0165      0.0126 0.0925
##  9 MSFT       -0.344      0.408        0.0177      0.0115 0.0820
## 10 GS         -0.275      0.312        0.0163      0.0111 0.0926
## # ... with 21 more rows
…
#remember this fig.width=25, fig.height=12 in the{}
#use the average support rate of the same day to build up a new dataset
df_vote <- german_election_polls %>% 
  group_by(end_date) %>% 
  summarize(CDU= mean(union)/100,
            SPD= mean(spd)/100,
            AFD=mean(af_d)/100,
            FDP= mean(fdp)/100,
            Linke=mean(linke)/100,
            Grune=mean(grune)/100)
df_vote

## # A tibble: 146 x 7
##    end_date     CDU   SPD   AFD    FDP  Linke Grune
##    <date>     <dbl> <dbl> <dbl>  <dbl>  <dbl> <dbl>
##  1 2021-01-04 0.365 0.155  0.1  0.0675 0.0775 0.18 
##  2 2021-01-05 0.36  0.15   0.1  0.06   0.09   0.18 
##  3 2021-01-06 0.35  0.14   0.1  0.07   0.07   0.21 
##  4 2021-01-08 0.36  0.14   0.08 0.07   0.08   0.2  
##  5 2021-01-11 0.36  0.15   0.1  0.075  0.08   0.18 
##  6 2021-01-13 0.36  0.15   0.1  0.07   0.08   0.18 
##  7 2021-01-14 0.37  0.15   0.1  0.05   0.08   0.2  
##  8 2021-01-15 0.35  0.15   0.09 0.06   0.08   0.2  
##  9 2021-01-17 0.35  0.15   0.09 0.07   0.08   0.19 
## 10 2021-01-18 0.352 0.145  0.11 0.0875 0.0775 0.172
## # ... with 136 more rows
…
